{
  "DA Warner": {
    "2009": "121.64",
    "2010": "147.64",
    "2011": "117.39",
    "2012": "162.03",
    "2013": "126.15",
    "2014": "140.05",
    "2015": "156.11",
    "2016": "150.62",
    "2017": "141.19"
  },
  "S Dhawan": {
    "2008": "114.48",
    "2009": "88.89",
    "2010": "110.40",
    "2011": "128.21",
    "2012": "129.61",
    "2013": "122.92",
    "2014": "116.36",
    "2015": "123.43",
    "2016": "116.78",
    "2017": "127.06"
  },
  "MC Henriques": {
    "2009": "95.00",
    "2010": "220.00",
    "2013": "130.95",
    "2014": "64.29",
    "2015": "135.38",
    "2016": "115.19",
    "2017": "136.45"
  },
  "Yuvraj Singh": {
    "2008": "162.50",
    "2009": "114.86",
    "2010": "128.86",
    "2011": "131.42",
    "2013": "124.61",
    "2014": "135.25",
    "2015": "118.10",
    "2016": "131.84",
    "2017": "142.37"
  },
  "DJ Hooda": {
    "2015": "158.95",
    "2016": "119.01",
    "2017": "150.00"
  },
  "BCJ Cutting": {
    "2014": "133.33",
    "2016": "185.71",
    "2017": "196.15"
  },
  "CH Gayle": {
    "2009": "123.49",
    "2010": "156.99",
    "2011": "182.04",
    "2012": "160.04",
    "2013": "156.18",
    "2014": "106.52",
    "2015": "147.45",
    "2016": "150.33",
    "2017": "122.70"
  },
  "Mandeep Singh": {
    "2010": "36.36",
    "2011": "114.63",
    "2012": "125.95",
    "2013": "115.56",
    "2014": "88.89",
    "2015": "157.00",
    "2017": "106.21"
  },
  "TM Head": {
    "2016": "131.71",
    "2017": "139.81"
  },
  "KM Jadhav": {
    "2010": "135.71",
    "2011": "78.26",
    "2013": "122.58",
    "2014": "147.52",
    "2015": "135.00",
    "2016": "131.25",
    "2017": "143.55"
  },
  "SR Watson": {
    "2008": "151.77",
    "2010": "162.28",
    "2011": "130.43",
    "2012": "150.89",
    "2013": "142.52",
    "2014": "122.39",
    "2015": "132.95",
    "2016": "133.58",
    "2017": "91.03"
  },
  "Sachin Baby": {
    "2013": "42.86",
    "2016": "150.63",
    "2017": "100.00"
  },
  "STR Binny": {
    "2010": "160.00",
    "2011": "119.35",
    "2012": "134.33",
    "2013": "146.50",
    "2014": "101.65",
    "2015": "110.45",
    "2016": "157.50",
    "2017": "102.63"
  },
  "S Aravind": {
    "2011": "162.50",
    "2012": "175.00",
    "2015": "0.00",
    "2017": "80.00"
  },
  "YS Chahal": {
    "2014": "100.00",
    "2015": "100.00",
    "2017": "50.00"
  },
  "TS Mills": {
    "2017": "72.73"
  },
  "A Choudhary": {
    "2017": "125.00"
  },
  "PA Patel": {
    "2008": "100.67",
    "2009": "112.70",
    "2010": "91.14",
    "2011": "110.38",
    "2012": "117.58",
    "2013": "115.29",
    "2014": "110.81",
    "2015": "137.25",
    "2016": "116.45",
    "2017": "134.35"
  },
  "JC Buttler": {
    "2016": "138.59",
    "2017": "151.67"
  },
  "RG Sharma": {
    "2008": "147.99",
    "2009": "114.92",
    "2010": "133.33",
    "2011": "124.83",
    "2012": "126.61",
    "2013": "131.54",
    "2014": "129.14",
    "2015": "144.31",
    "2016": "132.88",
    "2017": "121.09"
  },
  "N Rana": {
    "2016": "138.67",
    "2017": "125.66"
  },
  "AT Rayudu": {
    "2010": "143.55",
    "2011": "112.86",
    "2012": "132.14",
    "2013": "114.22",
    "2014": "125.35",
    "2015": "145.60",
    "2016": "120.14",
    "2017": "116.67"
  },
  "KH Pandya": {
    "2016": "191.13",
    "2017": "135.00"
  },
  "KA Pollard": {
    "2010": "184.46",
    "2011": "109.77",
    "2012": "137.50",
    "2013": "149.47",
    "2014": "134.48",
    "2015": "163.67",
    "2016": "143.45",
    "2017": "140.57"
  },
  "HH Pandya": {
    "2015": "180.65",
    "2016": "67.69",
    "2017": "155.28"
  },
  "TG Southee": {
    "2014": "100.00",
    "2015": "144.44",
    "2016": "150.00",
    "2017": "233.33"
  },
  "AM Rahane": {
    "2008": "23.53",
    "2009": "117.07",
    "2011": "122.45",
    "2012": "128.74",
    "2013": "106.32",
    "2014": "116.49",
    "2015": "130.43",
    "2016": "126.32",
    "2017": "118.27"
  },
  "MA Agarwal": {
    "2011": "116.53",
    "2012": "141.51",
    "2013": "108.06",
    "2014": "125.00",
    "2015": "120.34",
    "2016": "108.00",
    "2017": "96.30"
  },
  "SPD Smith": {
    "2012": "135.58",
    "2013": "120.45",
    "2014": "133.33",
    "2015": "133.63",
    "2016": "152.54",
    "2017": "121.65"
  },
  "BA Stokes": {
    "2017": "142.99"
  },
  "MS Dhoni": {
    "2008": "133.55",
    "2009": "127.20",
    "2010": "136.67",
    "2011": "158.70",
    "2012": "128.42",
    "2013": "162.32",
    "2014": "148.40",
    "2015": "121.57",
    "2016": "135.24",
    "2017": "116.00"
  },
  "JJ Roy": {
    "2017": "147.50"
  },
  "BB McCullum": {
    "2008": "200.00",
    "2009": "119.17",
    "2010": "101.79",
    "2011": "128.42",
    "2012": "102.12",
    "2013": "85.71",
    "2014": "121.26",
    "2015": "154.06",
    "2016": "134.09",
    "2017": "145.45"
  },
  "SK Raina": {
    "2008": "142.23",
    "2009": "140.91",
    "2010": "142.70",
    "2011": "134.77",
    "2012": "135.28",
    "2013": "150.14",
    "2014": "145.68",
    "2015": "122.22",
    "2016": "127.07",
    "2017": "143.97"
  },
  "AJ Finch": {
    "2010": "100.00",
    "2011": "102.17",
    "2012": "107.84",
    "2013": "135.31",
    "2014": "117.05",
    "2015": "69.70",
    "2016": "131.00",
    "2017": "163.04"
  },
  "KD Karthik": {
    "2008": "134.26",
    "2009": "132.11",
    "2010": "116.81",
    "2011": "128.18",
    "2012": "111.74",
    "2013": "123.79",
    "2014": "125.97",
    "2015": "120.51",
    "2016": "125.94",
    "2017": "138.85"
  },
  "G Gambhir": {
    "2008": "139.79",
    "2009": "102.51",
    "2010": "125.91",
    "2011": "117.76",
    "2012": "143.20",
    "2013": "118.02",
    "2014": "113.95",
    "2015": "117.20",
    "2016": "121.90",
    "2017": "128.02"
  },
  "CA Lynn": {
    "2012": "66.67",
    "2014": "118.37",
    "2016": "113.64",
    "2017": "179.88"
  },
  "MK Tiwary": {
    "2008": "122.35",
    "2009": "69.23",
    "2010": "126.74",
    "2011": "110.46",
    "2012": "105.69",
    "2013": "104.29",
    "2014": "128.81",
    "2015": "101.79",
    "2017": "137.29"
  },
  "DT Christian": {
    "2011": "119.50",
    "2012": "121.85",
    "2013": "40.00",
    "2017": "158.00"
  },
  "HM Amla": {
    "2016": "131.93",
    "2017": "145.33"
  },
  "M Vohra": {
    "2013": "137.61",
    "2014": "139.06",
    "2015": "100.00",
    "2016": "122.90",
    "2017": "143.13"
  },
  "WP Saha": {
    "2008": "133.61",
    "2009": "175.61",
    "2010": "126.42",
    "2011": "107.94",
    "2012": "42.86",
    "2013": "125.00",
    "2014": "144.80",
    "2015": "125.76",
    "2016": "127.36",
    "2017": "125.13"
  },
  "AR Patel": {
    "2014": "103.33",
    "2015": "117.71",
    "2016": "144.16",
    "2017": "140.12"
  },
  "GJ Maxwell": {
    "2012": "54.55",
    "2013": "133.33",
    "2014": "187.76",
    "2015": "129.20",
    "2016": "144.35",
    "2017": "172.22"
  },
  "DA Miller": {
    "2012": "130.67",
    "2013": "164.57",
    "2014": "148.17",
    "2015": "133.71",
    "2016": "122.90",
    "2017": "103.75"
  },
  "Vishnu Vinod": {
    "2017": "73.08"
  },
  "Iqbal Abdulla": {
    "2008": "50.00",
    "2010": "0.00",
    "2011": "125.00",
    "2012": "66.67",
    "2013": "57.14",
    "2015": "111.11",
    "2016": "137.04",
    "2017": "71.43"
  },
  "P Negi": {
    "2012": "124.14",
    "2015": "158.90",
    "2016": "96.61",
    "2017": "129.73"
  },
  "AP Tare": {
    "2010": "138.89",
    "2013": "146.43",
    "2014": "126.00",
    "2015": "82.35",
    "2016": "53.33",
    "2017": "78.26"
  },
  "SW Billings": {
    "2016": "137.50",
    "2017": "132.69"
  },
  "KK Nair": {
    "2013": "75.00",
    "2014": "142.24",
    "2015": "124.83",
    "2016": "119.80",
    "2017": "123.79"
  },
  "SV Samson": {
    "2013": "115.73",
    "2014": "123.72",
    "2015": "125.15",
    "2016": "112.36",
    "2017": "141.39"
  },
  "RR Pant": {
    "2016": "130.26",
    "2017": "165.61"
  },
  "CH Morris": {
    "2013": "87.50",
    "2015": "165.22",
    "2016": "177.27",
    "2017": "163.83"
  },
  "CR Brathwaite": {
    "2016": "212.82",
    "2017": "80.00"
  },
  "PJ Cummins": {
    "2015": "0.00",
    "2017": "145.28"
  },
  "A Mishra": {
    "2008": "88.10",
    "2009": "130.00",
    "2010": "76.47",
    "2011": "136.00",
    "2012": "80.00",
    "2013": "92.71",
    "2014": "57.14",
    "2015": "66.67",
    "2016": "28.57",
    "2017": "94.23"
  },
  "S Nadeem": {
    "2011": "0.00",
    "2012": "0.00",
    "2013": "51.85",
    "2014": "35.00",
    "2015": "28.57",
    "2016": "20.00",
    "2017": "22.22"
  },
  "Z Khan": {
    "2008": "79.07",
    "2009": "72.73",
    "2010": "184.62",
    "2011": "87.50",
    "2012": "70.59",
    "2014": "114.29",
    "2016": "46.15",
    "2017": "30.77"
  },
  "DR Smith": {
    "2008": "112.50",
    "2009": "162.88",
    "2010": "88.00",
    "2012": "158.59",
    "2013": "122.58",
    "2014": "136.06",
    "2015": "118.75",
    "2016": "145.95",
    "2017": "153.21"
  },
  "DS Kulkarni": {
    "2008": "12.50",
    "2009": "52.94",
    "2011": "50.00",
    "2012": "200.00",
    "2014": "140.00",
    "2015": "36.36",
    "2016": "168.75",
    "2017": "50.00"
  },
  "P Kumar": {
    "2008": "113.13",
    "2009": "141.30",
    "2010": "50.00",
    "2011": "87.10",
    "2012": "116.67",
    "2013": "117.50",
    "2014": "50.00",
    "2015": "68.00",
    "2016": "92.31",
    "2017": "88.89"
  },
  "Basil Thampi": {
    "2017": "100.00"
  },
  "RV Uthappa": {
    "2008": "113.48",
    "2009": "102.94",
    "2010": "170.78",
    "2011": "125.71",
    "2012": "118.08",
    "2013": "116.98",
    "2014": "137.79",
    "2015": "130.94",
    "2016": "135.86",
    "2017": "163.71"
  },
  "MK Pandey": {
    "2008": "33.33",
    "2009": "142.37",
    "2010": "110.18",
    "2011": "107.42",
    "2012": "127.68",
    "2013": "99.27",
    "2014": "118.90",
    "2015": "122.28",
    "2016": "134.78",
    "2017": "128.16"
  },
  "YK Pathan": {
    "2008": "178.28",
    "2009": "139.57",
    "2010": "165.67",
    "2011": "140.80",
    "2012": "114.79",
    "2013": "138.33",
    "2014": "162.42",
    "2015": "134.48",
    "2016": "144.98",
    "2017": "122.22"
  },
  "SA Yadav": {
    "2012": "0.00",
    "2014": "138.98",
    "2015": "138.94",
    "2016": "126.39",
    "2017": "117.98"
  },
  "CR Woakes": {
    "2017": "97.87"
  },
  "SP Narine": {
    "2012": "128.57",
    "2013": "110.53",
    "2014": "71.43",
    "2015": "0.00",
    "2016": "53.85",
    "2017": "170.99"
  },
  "Harbhajan Singh": {
    "2008": "176.47",
    "2009": "158.49",
    "2010": "166.67",
    "2011": "143.06",
    "2012": "135.00",
    "2013": "146.84",
    "2014": "112.00",
    "2015": "160.27",
    "2016": "109.52",
    "2017": "100.00"
  },
  "AB de Villiers": {
    "2008": "96.94",
    "2009": "130.99",
    "2010": "93.28",
    "2011": "127.87",
    "2012": "160.30",
    "2013": "167.26",
    "2014": "156.75",
    "2015": "173.90",
    "2016": "168.38",
    "2017": "131.71"
  },
  "CJ Anderson": {
    "2014": "146.41",
    "2015": "117.53",
    "2017": "115.45"
  },
  "F du Plessis": {
    "2012": "130.49",
    "2014": "128.94",
    "2015": "125.00",
    "2016": "126.38",
    "2017": "114.29"
  },
  "RA Tripathi": {
    "2017": "146.44"
  },
  "R Bhatia": {
    "2008": "121.43",
    "2009": "44.44",
    "2010": "141.18",
    "2011": "108.70",
    "2012": "125.00",
    "2013": "123.75",
    "2014": "126.42",
    "2015": "0.00",
    "2016": "170.00",
    "2017": "94.12"
  },
  "DL Chahar": {
    "2017": "233.33"
  },
  "A Zampa": {
    "2016": "0.00",
    "2017": "71.43"
  },
  "AB Dinda": {
    "2008": "50.00",
    "2009": "66.67",
    "2010": "0.00",
    "2011": "0.00",
    "2012": "40.00",
    "2013": "81.82",
    "2014": "33.33",
    "2017": "100.00"
  },
  "Imran Tahir": {
    "2014": "80.00",
    "2015": "83.33",
    "2016": "71.43",
    "2017": "0.00"
  },
  "NV Ojha": {
    "2009": "116.67",
    "2010": "132.28",
    "2011": "98.77",
    "2012": "113.33",
    "2013": "90.00",
    "2014": "141.46",
    "2015": "113.22",
    "2016": "98.55",
    "2017": "121.54"
  },
  "V Shankar": {
    "2017": "132.89"
  },
  "Rashid Khan": {
    "2017": "122.22"
  },
  "B Kumar": {
    "2011": "100.00",
    "2012": "100.00",
    "2013": "73.24",
    "2014": "25.00",
    "2015": "170.00",
    "2016": "159.26",
    "2017": "100.00"
  },
  "MP Stoinis": {
    "2016": "135.19",
    "2017": "70.83"
  },
  "MM Sharma": {
    "2013": "0.00",
    "2014": "33.33",
    "2015": "155.56",
    "2016": "123.08",
    "2017": "102.00"
  },
  "VR Aaron": {
    "2011": "0.00",
    "2012": "33.33",
    "2014": "102.94",
    "2015": "200.00",
    "2017": "40.00"
  },
  "V Kohli": {
    "2008": "104.43",
    "2009": "112.33",
    "2010": "144.13",
    "2011": "120.82",
    "2012": "111.66",
    "2013": "139.22",
    "2014": "122.11",
    "2015": "130.15",
    "2016": "151.79",
    "2017": "122.22"
  },
  "MJ McClenaghan": {
    "2015": "216.67",
    "2016": "147.83",
    "2017": "106.67"
  },
  "Ankit Sharma": {
    "2012": "138.46",
    "2014": "113.33",
    "2015": "116.67",
    "2016": "100.00",
    "2017": "166.67"
  },
  "SN Thakur": {
    "2015": "116.67",
    "2017": "0.00"
  },
  "RD Chahar": {
    "2017": "150.00"
  },
  "LH Ferguson": {
    "2017": "100.00"
  },
  "C de Grandhomme": {
    "2017": "136.96"
  },
  "Bipul Sharma": {
    "2010": "128.57",
    "2011": "127.78",
    "2012": "153.19",
    "2015": "50.00",
    "2016": "204.00",
    "2017": "129.17"
  },
  "SS Iyer": {
    "2015": "127.99",
    "2016": "69.77",
    "2017": "139.09"
  },
  "EJG Morgan": {
    "2010": "116.67",
    "2011": "117.09",
    "2013": "127.92",
    "2015": "123.84",
    "2016": "117.14",
    "2017": "104.84"
  },
  "KC Cariappa": {
    "2016": "118.18",
    "2017": "28.57"
  },
  "Sandeep Sharma": {
    "2013": "0.00",
    "2014": "40.00",
    "2015": "64.29",
    "2016": "88.89",
    "2017": "116.67"
  },
  "Ishan Kishan": {
    "2016": "102.44",
    "2017": "134.47"
  },
  "JD Unadkat": {
    "2013": "100.00",
    "2014": "16.67",
    "2017": "40.00"
  },
  "AF Milne": {
    "2017": "58.33"
  },
  "S Badree": {
    "2017": "56.52"
  },
  "AD Mathews": {
    "2009": "123.08",
    "2010": "126.63",
    "2012": "116.51",
    "2013": "123.74",
    "2015": "138.46",
    "2017": "118.52"
  },
  "Mohammed Shami": {
    "2013": "50.00",
    "2014": "42.86",
    "2016": "50.00",
    "2017": "150.00"
  },
  "Mohammad Nabi": {
    "2017": "66.67"
  },
  "I Sharma": {
    "2008": "100.00",
    "2009": "123.08",
    "2010": "35.29",
    "2011": "80.00",
    "2017": "66.67"
  },
  "RA Jadeja": {
    "2008": "129.81",
    "2009": "110.90",
    "2011": "124.12",
    "2012": "126.49",
    "2013": "147.79",
    "2014": "132.73",
    "2015": "103.94",
    "2016": "107.91",
    "2017": "139.82"
  },
  "AJ Tye": {
    "2017": "176.67"
  },
  "KS Williamson": {
    "2015": "114.81",
    "2016": "100.81",
    "2017": "151.48"
  },
  "SE Marsh": {
    "2008": "139.37",
    "2010": "127.83",
    "2011": "146.09",
    "2012": "119.15",
    "2013": "120.48",
    "2014": "134.62",
    "2015": "147.62",
    "2016": "118.66",
    "2017": "136.08"
  },
  "Shakib Al Hasan": {
    "2011": "131.82",
    "2012": "122.97",
    "2014": "148.70",
    "2015": "133.33",
    "2016": "106.54",
    "2017": "100.00"
  },
  "JP Faulkner": {
    "2012": "107.69",
    "2013": "100.00",
    "2014": "192.55",
    "2015": "130.91",
    "2016": "130.51",
    "2017": "94.74"
  },
  "MG Johnson": {
    "2013": "105.41",
    "2014": "112.00",
    "2015": "86.11",
    "2016": "35.71",
    "2017": "117.65"
  },
  "K Rabada": {
    "2017": "85.94"
  },
  "AD Nath": {
    "2016": "74.07",
    "2017": "0.00"
  },
  "NM Coulter-Nile": {
    "2013": "150.00",
    "2015": "111.11",
    "2016": "64.29",
    "2017": "116.67"
  },
  "Kuldeep Yadav": {
    "2017": "90.91"
  },
  "UT Yadav": {
    "2010": "75.00",
    "2011": "20.00",
    "2012": "28.57",
    "2013": "100.00",
    "2014": "50.00",
    "2015": "207.14",
    "2016": "180.00",
    "2017": "76.92"
  },
  "Washington Sundar": {
    "2017": "75.00"
  },
  "KV Sharma": {
    "2009": "33.33",
    "2013": "97.70",
    "2014": "144.83",
    "2015": "122.35",
    "2016": "120.00",
    "2017": "119.51"
  },
  "DM Bravo": {
    "2017": "120.00"
  },
  "AR Bawne": {
    "2017": "100.00"
  },
  "SP Jackson": {
    "2017": "122.58"
  },
  "MJ Guptill": {
    "2016": "103.64",
    "2017": "150.00"
  },
  "Anureet Singh": {
    "2015": "58.06",
    "2017": "125.00"
  },
  "IK Pathan": {
    "2008": "111.97",
    "2009": "122.50",
    "2010": "148.39",
    "2011": "108.70",
    "2012": "139.68",
    "2013": "98.08",
    "2014": "101.85",
    "2016": "84.62",
    "2017": "66.67"
  },
  "Ankit Soni": {
    "2017": "77.78"
  },
  "JJ Bumrah": {
    "2014": "33.33",
    "2016": "72.73",
    "2017": "133.33"
  },
  "SL Malinga": {
    "2009": "0.00",
    "2010": "100.00",
    "2011": "88.89",
    "2012": "103.77",
    "2013": "50.00",
    "2014": "50.00",
    "2015": "60.00",
    "2017": "233.33"
  },
  "PJ Sangwan": {
    "2008": "40.00",
    "2009": "60.00",
    "2010": "66.67",
    "2013": "200.00",
    "2017": "50.00"
  },
  "S Kaul": {
    "2013": "77.78",
    "2014": "100.00",
    "2017": "0.00"
  },
  "LMP Simmons": {
    "2014": "135.40",
    "2015": "122.17",
    "2016": "100.00",
    "2017": "122.32"
  },
  "MN Samuels": {
    "2012": "100.81",
    "2013": "44.44",
    "2017": "93.55"
  },
  "Swapnil Singh": {
    "2016": "0.00",
    "2017": "63.16"
  },
  "R Tewatia": {
    "2014": "123.08",
    "2017": "172.73"
  },
  "MM Patel": {
    "2008": "0.00",
    "2009": "126.92",
    "2010": "80.00",
    "2011": "0.00",
    "2012": "28.57",
    "2017": "0.00"
  },
  "SS Tiwary": {
    "2008": "130.00",
    "2009": "108.33",
    "2010": "135.60",
    "2011": "99.47",
    "2012": "112.35",
    "2013": "100.00",
    "2015": "139.74",
    "2016": "120.57",
    "2017": "120.93"
  },
  "TA Boult": {
    "2017": "62.50"
  },
  "CJ Jordan": {
    "2016": "75.00",
    "2017": "0.00"
  },
  "IR Jaggi": {
    "2011": "73.68",
    "2012": "71.43",
    "2017": "84.62"
  },
  "PP Chawla": {
    "2008": "152.54",
    "2009": "83.78",
    "2010": "103.33",
    "2011": "87.27",
    "2012": "120.45",
    "2013": "112.28",
    "2014": "163.16",
    "2015": "114.89",
    "2016": "103.85",
    "2017": "33.33"
  },
  "AS Rajpoot": {
    "2013": "33.33",
    "2017": "57.14"
  },
  "SC Ganguly": {
    "2008": "112.58",
    "2009": "91.30",
    "2010": "117.66",
    "2011": "83.33",
    "2012": "98.53"
  },
  "RT Ponting": {
    "2008": "73.58",
    "2013": "68.42"
  },
  "DJ Hussey": {
    "2008": "123.17",
    "2009": "166.10",
    "2010": "109.30",
    "2011": "101.59",
    "2012": "128.57",
    "2013": "112.44",
    "2014": "123.40"
  },
  "Mohammad Hafeez": {
    "2008": "77.11"
  },
  "R Dravid": {
    "2008": "124.08",
    "2009": "115.81",
    "2010": "128.00",
    "2011": "108.89",
    "2012": "111.86",
    "2013": "110.30"
  },
  "W Jaffer": {
    "2008": "110.58",
    "2009": "88.24"
  },
  "JH Kallis": {
    "2008": "108.15",
    "2009": "108.73",
    "2010": "115.79",
    "2011": "111.29",
    "2012": "106.23",
    "2013": "96.58",
    "2014": "117.05"
  },
  "CL White": {
    "2008": "111.76",
    "2010": "145.45",
    "2011": "95.41",
    "2012": "149.69",
    "2013": "115.31"
  },
  "MV Boucher": {
    "2008": "127.12",
    "2009": "129.31",
    "2010": "130.00",
    "2011": "100.00"
  },
  "B Akhil": {
    "2008": "148.39",
    "2009": "113.33",
    "2011": "144.44"
  },
  "AA Noffke": {
    "2008": "90.00"
  },
  "SB Joshi": {
    "2008": "42.86"
  },
  "ML Hayden": {
    "2008": "143.18",
    "2009": "143.00",
    "2010": "123.57"
  },
  "MEK Hussey": {
    "2008": "168.00",
    "2010": "84.09",
    "2011": "118.84",
    "2012": "110.59",
    "2013": "129.51",
    "2014": "114.21",
    "2015": "110.00"
  },
  "JDP Oram": {
    "2008": "150.00",
    "2009": "94.62",
    "2011": "0.00"
  },
  "S Badrinath": {
    "2008": "147.69",
    "2009": "107.27",
    "2010": "117.49",
    "2011": "126.52",
    "2012": "108.29",
    "2013": "101.64"
  },
  "K Goel": {
    "2008": "97.44",
    "2009": "93.23",
    "2010": "90.00"
  },
  "JR Hopes": {
    "2008": "148.32",
    "2011": "123.27"
  },
  "KC Sangakkara": {
    "2008": "160.80",
    "2009": "101.84",
    "2010": "138.91",
    "2011": "121.77",
    "2012": "108.11",
    "2013": "88.24"
  },
  "SM Katich": {
    "2008": "139.13",
    "2009": "123.93"
  },
  "T Kohli": {
    "2008": "66.67",
    "2009": "25.00"
  },
  "M Kaif": {
    "2008": "102.33",
    "2010": "93.33",
    "2011": "124.24",
    "2012": "87.50"
  },
  "DS Lehmann": {
    "2008": "100.00"
  },
  "M Rawat": {
    "2008": "87.18",
    "2009": "84.21",
    "2013": "45.45"
  },
  "D Salunkhe": {
    "2008": "137.50"
  },
  "SK Warne": {
    "2008": "118.64",
    "2009": "93.10",
    "2010": "50.00",
    "2011": "50.00"
  },
  "SK Trivedi": {
    "2008": "41.67",
    "2009": "50.00",
    "2010": "133.33",
    "2011": "0.00",
    "2012": "83.33",
    "2013": "42.86"
  },
  "V Sehwag": {
    "2008": "183.71",
    "2009": "142.45",
    "2010": "161.82",
    "2011": "175.21",
    "2012": "159.68",
    "2013": "126.61",
    "2014": "144.44",
    "2015": "117.86"
  },
  "L Ronchi": {
    "2008": "106.25",
    "2009": "0.00"
  },
  "ST Jayasuriya": {
    "2008": "165.81",
    "2009": "113.92",
    "2010": "103.13"
  },
  "DJ Thornely": {
    "2008": "73.58"
  },
  "PR Shah": {
    "2008": "97.14",
    "2009": "103.92",
    "2011": "100.00"
  },
  "AM Nayar": {
    "2008": "148.20",
    "2009": "125.32",
    "2010": "113.73",
    "2011": "91.04",
    "2012": "91.84",
    "2013": "90.41",
    "2014": "91.49"
  },
  "SM Pollock": {
    "2008": "132.43"
  },
  "S Chanderpaul": {
    "2008": "80.65"
  },
  "LRPL Taylor": {
    "2008": "183.95",
    "2009": "134.62",
    "2010": "117.33",
    "2011": "118.30",
    "2012": "115.20",
    "2013": "82.89",
    "2014": "100.00"
  },
  "AC Gilchrist": {
    "2008": "137.11",
    "2009": "152.31",
    "2010": "155.38",
    "2011": "128.96",
    "2012": "119.44",
    "2013": "128.38"
  },
  "Y Venugopal Rao": {
    "2008": "137.14",
    "2009": "108.77",
    "2010": "79.07",
    "2011": "118.31",
    "2012": "104.76",
    "2014": "112.70"
  },
  "VVS Laxman": {
    "2008": "117.42",
    "2009": "57.58",
    "2010": "106.67",
    "2011": "104.76"
  },
  "A Symonds": {
    "2008": "153.33",
    "2009": "150.00",
    "2010": "125.44",
    "2011": "97.83"
  },
  "SB Styris": {
    "2008": "91.06",
    "2009": "175.00",
    "2011": "250.00"
  },
  "AS Yadav": {
    "2008": "125.64"
  },
  "SB Bangar": {
    "2008": "95.92",
    "2009": "22.22"
  },
  "WPUJC Vaas": {
    "2008": "116.67",
    "2009": "142.86",
    "2010": "88.24"
  },
  "RP Singh": {
    "2008": "112.50",
    "2009": "47.06",
    "2010": "47.37",
    "2011": "50.00",
    "2012": "50.00"
  },
  "LR Shukla": {
    "2008": "133.61",
    "2009": "97.65",
    "2010": "133.33",
    "2011": "140.00",
    "2012": "131.58",
    "2013": "25.00",
    "2014": "81.58"
  },
  "DPMD Jayawardene": {
    "2008": "136.64",
    "2009": "131.14",
    "2010": "147.84",
    "2011": "114.56",
    "2012": "111.67",
    "2013": "105.08"
  },
  "S Sohal": {
    "2008": "50.00",
    "2009": "123.66",
    "2011": "129.69"
  },
  "B Lee": {
    "2008": "121.43",
    "2009": "82.35",
    "2010": "122.22",
    "2011": "55.56",
    "2012": "210.00",
    "2013": "175.00"
  },
  "WA Mota": {
    "2008": "96.30",
    "2009": "62.50"
  },
  "Kamran Akmal": {
    "2008": "164.10"
  },
  "Shahid Afridi": {
    "2008": "176.09"
  },
  "DJ Bravo": {
    "2008": "132.84",
    "2009": "107.39",
    "2010": "115.09",
    "2011": "183.33",
    "2012": "140.53",
    "2013": "114.15",
    "2014": "266.67",
    "2015": "130.87",
    "2016": "120.73"
  },
  "MA Khote": {
    "2008": "109.09"
  },
  "A Nehra": {
    "2008": "23.08",
    "2009": "100.00",
    "2010": "115.00",
    "2012": "91.67",
    "2013": "12.50",
    "2015": "14.29",
    "2016": "100.00"
  },
  "GC Smith": {
    "2008": "120.16",
    "2009": "98.15",
    "2010": "112.82",
    "2011": "82.35"
  },
  "Pankaj Singh": {
    "2008": "62.50",
    "2009": "50.00",
    "2010": "50.00"
  },
  "RR Sarwan": {
    "2008": "97.33"
  },
  "S Sreesanth": {
    "2008": "0.00",
    "2009": "27.78",
    "2010": "128.57",
    "2011": "11.11",
    "2013": "25.00"
  },
  "VRV Singh": {
    "2008": "133.33"
  },
  "R Vinay Kumar": {
    "2008": "108.70",
    "2009": "106.82",
    "2010": "84.38",
    "2011": "106.38",
    "2012": "107.94",
    "2013": "159.09",
    "2014": "66.67",
    "2015": "0.00",
    "2016": "108.33"
  },
  "AB Agarkar": {
    "2008": "117.39",
    "2009": "115.79",
    "2010": "137.93",
    "2011": "116.67",
    "2013": "75.00"
  },
  "M Kartik": {
    "2008": "107.14",
    "2009": "105.00",
    "2010": "100.00",
    "2011": "80.00",
    "2012": "123.81",
    "2013": "66.67"
  },
  "Shoaib Malik": {
    "2008": "108.33"
  },
  "MF Maharoof": {
    "2008": "158.23",
    "2009": "100.00",
    "2010": "134.78"
  },
  "VY Mahesh": {
    "2008": "53.57"
  },
  "TM Srivastava": {
    "2008": "80.00",
    "2009": "0.00"
  },
  "B Chipli": {
    "2008": "71.43",
    "2011": "121.76",
    "2012": "105.71",
    "2013": "88.89"
  },
  "DW Steyn": {
    "2008": "40.00",
    "2009": "0.00",
    "2010": "76.47",
    "2011": "102.86",
    "2012": "90.48",
    "2013": "147.22",
    "2014": "84.62",
    "2015": "153.85",
    "2016": "50.00"
  },
  "DB Das": {
    "2008": "109.57",
    "2012": "135.48",
    "2013": "101.35"
  },
  "HH Gibbs": {
    "2008": "108.44",
    "2009": "112.08",
    "2010": "113.62",
    "2012": "92.05"
  },
  "DNT Zoysa": {
    "2008": "122.22"
  },
  "D Kalyankrishna": {
    "2008": "37.50"
  },
  "SA Asnodkar": {
    "2008": "132.91",
    "2009": "105.38",
    "2010": "125.00",
    "2011": "100.00"
  },
  "Sohail Tanvir": {
    "2008": "120.00"
  },
  "Salman Butt": {
    "2008": "119.14"
  },
  "BJ Hodge": {
    "2008": "70.59",
    "2009": "117.36",
    "2010": "110.00",
    "2011": "120.25",
    "2012": "140.00",
    "2013": "131.98",
    "2014": "140.28"
  },
  "Umar Gul": {
    "2008": "205.26"
  },
  "SP Fleming": {
    "2008": "118.79"
  },
  "S Vidyut": {
    "2008": "131.82"
  },
  "JA Morkel": {
    "2008": "146.95",
    "2009": "138.57",
    "2010": "150.76",
    "2011": "133.98",
    "2012": "155.07",
    "2013": "124.32",
    "2014": "109.76",
    "2015": "132.31",
    "2016": "177.78"
  },
  "LPC Silva": {
    "2008": "153.85"
  },
  "DB Ravi Teja": {
    "2008": "131.33",
    "2009": "92.86",
    "2011": "127.08",
    "2012": "100.00",
    "2013": "82.35"
  },
  "Misbah-ul-Haq": {
    "2008": "142.68"
  },
  "YV Takawale": {
    "2008": "107.69",
    "2009": "81.82",
    "2014": "114.29"
  },
  "RR Raje": {
    "2008": "88.89",
    "2009": "133.33"
  },
  "Mohammad Asif": {
    "2008": "50.00"
  },
  "GD McGrath": {
    "2008": "80.00"
  },
  "Joginder Sharma": {
    "2008": "145.45",
    "2009": "111.11",
    "2011": "0.00"
  },
  "MS Gony": {
    "2008": "152.17",
    "2009": "185.71",
    "2010": "33.33",
    "2011": "0.00",
    "2012": "50.00",
    "2013": "180.00"
  },
  "M Muralitharan": {
    "2008": "0.00",
    "2009": "100.00",
    "2010": "50.00",
    "2011": "62.50",
    "2012": "66.67"
  },
  "M Ntini": {
    "2008": "61.11"
  },
  "DT Patil": {
    "2008": "100.00"
  },
  "A Kumble": {
    "2008": "76.47",
    "2009": "84.21",
    "2010": "54.55"
  },
  "S Anirudha": {
    "2008": "14.29",
    "2010": "157.89",
    "2011": "110.67",
    "2012": "237.50",
    "2013": "0.00",
    "2014": "60.00"
  },
  "CK Kapugedera": {
    "2008": "69.57"
  },
  "A Chopra": {
    "2008": "80.77",
    "2009": "57.89"
  },
  "T Taibu": {
    "2008": "119.23"
  },
  "J Arunkumar": {
    "2008": "100.00"
  },
  "PP Ojha": {
    "2008": "50.00",
    "2009": "14.29",
    "2010": "37.50",
    "2012": "28.57",
    "2013": "50.00",
    "2014": "50.00"
  },
  "SP Goswami": {
    "2008": "96.47",
    "2009": "88.33",
    "2010": "80.00",
    "2011": "100.00",
    "2012": "102.99"
  },
  "SR Tendulkar": {
    "2008": "103.87",
    "2009": "118.95",
    "2010": "132.05",
    "2011": "112.63",
    "2012": "113.68",
    "2013": "123.71"
  },
  "U Kaul": {
    "2008": "0.00"
  },
  "TM Dilshan": {
    "2008": "131.65",
    "2009": "121.51",
    "2010": "83.02",
    "2011": "125.56",
    "2012": "108.37",
    "2013": "80.85"
  },
  "AD Mascarenhas": {
    "2008": "112.50",
    "2009": "100.00",
    "2010": "120.00",
    "2012": "87.50",
    "2013": "100.00"
  },
  "Niraj Patel": {
    "2008": "127.16",
    "2009": "47.37"
  },
  "LA Pomersbach": {
    "2008": "152.00",
    "2009": "83.67",
    "2011": "130.77",
    "2013": "98.31"
  },
  "Younis Khan": {
    "2008": "42.86"
  },
  "PM Sarvesh Kumar": {
    "2008": "50.00"
  },
  "DP Vijaykumar": {
    "2008": "100.00"
  },
  "Shoaib Akhtar": {
    "2008": "28.57"
  },
  "Abdur Razzak": {
    "2008": "0.00"
  },
  "H Das": {
    "2008": "40.00"
  },
  "SD Chitnis": {
    "2008": "180.00",
    "2009": "75.00",
    "2011": "100.00",
    "2012": "106.45"
  },
  "CRD Fernando": {
    "2008": "200.00",
    "2010": "100.00"
  },
  "VS Yeligati": {
    "2008": "100.00"
  },
  "L Balaji": {
    "2008": "0.00",
    "2009": "40.00",
    "2010": "90.00",
    "2011": "200.00",
    "2013": "90.00",
    "2014": "33.33"
  },
  "A Mukund": {
    "2008": "0.00",
    "2013": "90.48"
  },
  "RR Powar": {
    "2008": "133.33",
    "2009": "104.55",
    "2010": "62.50",
    "2011": "84.62"
  },
  "JP Duminy": {
    "2009": "114.11",
    "2010": "119.85",
    "2011": "117.14",
    "2012": "127.08",
    "2014": "133.55",
    "2015": "131.43",
    "2016": "122.44"
  },
  "A Flintoff": {
    "2009": "116.98"
  },
  "T Thushara": {
    "2009": "28.57",
    "2010": "90.91"
  },
  "JD Ryder": {
    "2009": "114.29",
    "2011": "147.47",
    "2012": "119.63"
  },
  "KP Pietersen": {
    "2009": "108.14",
    "2010": "150.32",
    "2012": "147.34",
    "2014": "126.18",
    "2016": "119.67"
  },
  "T Henderson": {
    "2009": "68.75"
  },
  "Kamran Khan": {
    "2009": "60.00"
  },
  "RS Bopara": {
    "2009": "115.00",
    "2010": "115.89",
    "2015": "120.83"
  },
  "R Bishnoi": {
    "2009": "111.76"
  },
  "FH Edwards": {
    "2009": "80.00"
  },
  "PC Valthaty": {
    "2009": "50.00",
    "2011": "136.58",
    "2012": "58.82",
    "2013": "35.29"
  },
  "RJ Quiney": {
    "2009": "100.98"
  },
  "AS Raut": {
    "2009": "125.81",
    "2010": "116.67",
    "2011": "101.69"
  },
  "Yashpal Singh": {
    "2009": "71.21"
  },
  "M Manhas": {
    "2009": "120.97",
    "2010": "105.37",
    "2011": "92.68",
    "2012": "125.00",
    "2013": "76.47",
    "2014": "145.83"
  },
  "AA Bilakhia": {
    "2009": "82.72",
    "2010": "50.00"
  },
  "AN Ghosh": {
    "2009": "87.50"
  },
  "BAW Mendis": {
    "2009": "0.00",
    "2010": "100.00",
    "2013": "50.00"
  },
  "DL Vettori": {
    "2009": "106.25",
    "2010": "122.22",
    "2011": "82.14",
    "2012": "119.23"
  },
  "MN van Wyk": {
    "2009": "126.52"
  },
  "RE van der Merwe": {
    "2009": "124.49",
    "2010": "50.00",
    "2011": "87.50",
    "2013": "88.00"
  },
  "TL Suman": {
    "2009": "124.74",
    "2010": "119.46",
    "2011": "127.45",
    "2012": "78.95",
    "2013": "89.66"
  },
  "Shoaib Ahmed": {
    "2009": "16.67"
  },
  "GR Napier": {
    "2009": "93.75"
  },
  "KP Appanna": {
    "2009": "0.00",
    "2010": "66.67"
  },
  "LA Carseldine": {
    "2009": "119.12"
  },
  "SM Harwood": {
    "2009": "64.29"
  },
  "M Vijay": {
    "2009": "89.55",
    "2010": "155.25",
    "2011": "128.02",
    "2012": "124.91",
    "2013": "108.71",
    "2014": "106.15",
    "2015": "109.61",
    "2016": "124.45"
  },
  "SB Jakati": {
    "2009": "133.33",
    "2012": "58.33",
    "2016": "50.00"
  },
  "RJ Harris": {
    "2009": "116.67",
    "2010": "115.38",
    "2011": "79.49",
    "2012": "163.64",
    "2013": "40.00"
  },
  "D du Preez": {
    "2009": "76.92"
  },
  "M Morkel": {
    "2009": "100.00",
    "2010": "56.25",
    "2011": "160.00",
    "2012": "60.00",
    "2013": "196.55",
    "2014": "133.33",
    "2015": "133.33",
    "2016": "100.00"
  },
  "J Botha": {
    "2009": "117.50",
    "2011": "116.16",
    "2012": "107.41",
    "2013": "82.69",
    "2015": "206.67"
  },
  "C Nanda": {
    "2009": "0.00"
  },
  "Mashrafe Mortaza": {
    "2009": "100.00"
  },
  "A Singh": {
    "2009": "33.33",
    "2011": "25.00",
    "2012": "0.00"
  },
  "GJ Bailey": {
    "2009": "112.50",
    "2010": "66.67",
    "2014": "135.26",
    "2015": "136.32",
    "2016": "85.71"
  },
  "AB McDonald": {
    "2009": "75.00",
    "2010": "125.00",
    "2011": "114.29",
    "2012": "134.29",
    "2013": "0.00"
  },
  "Y Nagar": {
    "2009": "100.00",
    "2010": "16.67",
    "2011": "109.90",
    "2012": "115.04"
  },
  "SS Shaikh": {
    "2009": "85.71"
  },
  "R Ashwin": {
    "2009": "53.33",
    "2010": "75.00",
    "2011": "33.33",
    "2012": "120.00",
    "2013": "71.43",
    "2014": "100.00",
    "2015": "162.50",
    "2016": "107.89"
  },
  "Mohammad Ashraful": {
    "2009": "20.00"
  },
  "CA Pujara": {
    "2010": "105.17",
    "2011": "106.25",
    "2012": "77.27",
    "2013": "92.93",
    "2014": "100.00"
  },
  "OA Shah": {
    "2010": "121.05",
    "2011": "173.33",
    "2012": "131.27",
    "2013": "108.70"
  },
  "Anirudh Singh": {
    "2010": "95.45"
  },
  "Jaskaran Singh": {
    "2010": "72.73"
  },
  "R Sathish": {
    "2010": "115.46",
    "2011": "73.53",
    "2013": "141.56",
    "2016": "100.00"
  },
  "R McLaren": {
    "2010": "95.65",
    "2011": "92.78",
    "2013": "50.00"
  },
  "AA Jhunjhunwala": {
    "2010": "110.24",
    "2011": "52.63",
    "2012": "92.31"
  },
  "P Dogra": {
    "2010": "100.94",
    "2012": "62.50",
    "2013": "62.50"
  },
  "A Uniyal": {
    "2010": "57.14"
  },
  "MS Bisla": {
    "2010": "121.79",
    "2011": "80.00",
    "2012": "132.30",
    "2013": "105.81",
    "2014": "33.33",
    "2015": "123.33"
  },
  "YA Abdulla": {
    "2010": "0.00"
  },
  "JM Kemp": {
    "2010": "108.33"
  },
  "S Tyagi": {
    "2010": "75.00"
  },
  "RS Gavaskar": {
    "2010": "25.00"
  },
  "SE Bond": {
    "2010": "50.00"
  },
  "S Ladda": {
    "2010": "0.00"
  },
  "DP Nannes": {
    "2010": "30.77"
  },
  "MJ Lumb": {
    "2010": "144.79",
    "2011": "0.00"
  },
  "DR Martyn": {
    "2010": "79.17"
  },
  "S Narwal": {
    "2010": "116.67",
    "2013": "153.33"
  },
  "AB Barath": {
    "2010": "100.00"
  },
  "FY Fazal": {
    "2010": "105.13",
    "2011": "100.00"
  },
  "AC Voges": {
    "2010": "126.57"
  },
  "MD Mishra": {
    "2010": "115.28",
    "2011": "111.67",
    "2012": "100.00"
  },
  "J Theron": {
    "2010": "40.00",
    "2012": "116.67",
    "2015": "100.00"
  },
  "SJ Srivastava": {
    "2010": "50.00",
    "2011": "133.33"
  },
  "R Sharma": {
    "2010": "111.54",
    "2011": "114.29",
    "2012": "18.18",
    "2013": "64.71"
  },
  "SW Tait": {
    "2010": "92.31",
    "2011": "100.00",
    "2013": "33.33"
  },
  "KB Arun Karthik": {
    "2010": "60.00",
    "2011": "87.50",
    "2013": "107.89"
  },
  "KAJ Roach": {
    "2010": "111.11"
  },
  "PD Collingwood": {
    "2010": "129.30"
  },
  "CK Langeveldt": {
    "2010": "0.00",
    "2011": "100.00"
  },
  "VS Malik": {
    "2010": "120.00",
    "2014": "50.00"
  },
  "A Mithun": {
    "2010": "125.00",
    "2011": "135.00",
    "2013": "100.00"
  },
  "AP Dole": {
    "2010": "154.55"
  },
  "AN Ahmed": {
    "2010": "57.14",
    "2011": "138.46",
    "2014": "400.00",
    "2015": "200.00"
  },
  "RS Sodhi": {
    "2010": "200.00"
  },
  "DE Bollinger": {
    "2010": "105.88",
    "2011": "0.00",
    "2012": "60.00"
  },
  "S Sriram": {
    "2010": "87.10",
    "2011": "57.14"
  },
  "B Sumanth": {
    "2010": "94.59"
  },
  "C Madan": {
    "2010": "78.95"
  },
  "AG Paunikar": {
    "2010": "0.00",
    "2011": "85.96"
  },
  "MR Marsh": {
    "2010": "93.33",
    "2011": "102.04",
    "2013": "132.08",
    "2016": "63.64"
  },
  "Harmeet Singh": {
    "2010": "0.00",
    "2012": "214.29",
    "2013": "75.00"
  },
  "RV Gomez": {
    "2011": "88.46",
    "2013": "400.00"
  },
  "AUK Pathan": {
    "2011": "206.25",
    "2012": "85.71"
  },
  "UBT Chand": {
    "2011": "16.67",
    "2012": "105.88",
    "2013": "99.37",
    "2014": "22.22",
    "2015": "120.00",
    "2016": "0.00"
  },
  "DJ Jacobs": {
    "2011": "104.55",
    "2012": "0.00"
  },
  "Sunny Singh": {
    "2011": "138.71"
  },
  "NJ Rimmington": {
    "2011": "100.00"
  },
  "AL Menaria": {
    "2011": "118.42",
    "2012": "108.91",
    "2013": "50.00"
  },
  "WD Parnell": {
    "2011": "94.87",
    "2012": "70.37",
    "2013": "71.43",
    "2014": "100.00"
  },
  "JJ van der Wath": {
    "2011": "112.50"
  },
  "R Ninan": {
    "2011": "50.00"
  },
  "MS Wade": {
    "2011": "66.67"
  },
  "TD Paine": {
    "2011": "38.46"
  },
  "SB Wagh": {
    "2011": "66.67"
  },
  "AC Thomas": {
    "2011": "25.00",
    "2012": "126.67"
  },
  "JEC Franklin": {
    "2011": "137.18",
    "2012": "98.65"
  },
  "DH Yagnik": {
    "2011": "72.73",
    "2012": "192.31",
    "2013": "130.21",
    "2014": "66.67"
  },
  "S Randiv": {
    "2011": "50.00"
  },
  "BJ Haddin": {
    "2011": "163.64"
  },
  "NLTC Perera": {
    "2011": "85.19",
    "2012": "44.44",
    "2013": "142.42",
    "2015": "80.00",
    "2016": "161.29"
  },
  "NL McCullum": {
    "2011": "118.18"
  },
  "JE Taylor": {
    "2011": "100.00"
  },
  "J Syed Mohammad": {
    "2011": "125.00",
    "2012": "400.00",
    "2013": "76.92"
  },
  "RN ten Doeschate": {
    "2011": "146.58",
    "2012": "100.00",
    "2013": "134.92",
    "2014": "157.58",
    "2015": "135.56"
  },
  "TR Birt": {
    "2011": "129.31"
  },
  "AG Murtaza": {
    "2011": "40.00",
    "2012": "60.00",
    "2013": "125.00"
  },
  "Harpreet Singh": {
    "2011": "70.00",
    "2012": "100.00"
  },
  "M Klinger": {
    "2011": "94.81"
  },
  "AC Blizzard": {
    "2011": "137.93",
    "2012": "0.00"
  },
  "I Malhotra": {
    "2011": "175.00"
  },
  "L Ablish": {
    "2011": "0.00"
  },
  "CA Ingram": {
    "2011": "80.77"
  },
  "P Parameswaran": {
    "2011": "100.00",
    "2012": "0.00"
  },
  "CJ Ferguson": {
    "2011": "88.89",
    "2012": "79.37"
  },
  "AA Chavan": {
    "2011": "33.33",
    "2012": "137.50"
  },
  "ND Doshi": {
    "2011": "0.00"
  },
  "Y Gnaneswara Rao": {
    "2011": "111.76"
  },
  "S Rana": {
    "2011": "112.50",
    "2014": "112.31"
  },
  "BA Bhatt": {
    "2011": "0.00",
    "2012": "300.00"
  },
  "RE Levi": {
    "2012": "113.70"
  },
  "KK Cooper": {
    "2012": "190.00",
    "2013": "177.27",
    "2014": "150.00"
  },
  "HV Patel": {
    "2012": "100.00",
    "2014": "185.71",
    "2015": "158.33"
  },
  "DAJ Bracewell": {
    "2012": "133.33"
  },
  "DJ Harris": {
    "2012": "108.82"
  },
  "GB Hogg": {
    "2012": "93.75",
    "2015": "116.67"
  },
  "RR Bhatkal": {
    "2012": "0.00"
  },
  "CJ McKay": {
    "2012": "53.33"
  },
  "N Saini": {
    "2012": "99.29"
  },
  "Azhar Mahmood": {
    "2012": "130.99",
    "2013": "127.27",
    "2015": "85.71"
  },
  "RJ Peterson": {
    "2012": "103.23"
  },
  "KMDN Kulasekara": {
    "2012": "166.67"
  },
  "A Ashish Reddy": {
    "2012": "120.69",
    "2013": "140.45",
    "2015": "158.70",
    "2016": "162.07"
  },
  "V Pratap Singh": {
    "2012": "0.00"
  },
  "BB Samantray": {
    "2012": "100.00",
    "2013": "109.82"
  },
  "MJ Clarke": {
    "2012": "103.16"
  },
  "Gurkeerat Singh": {
    "2012": "165.38",
    "2013": "113.68",
    "2015": "87.50",
    "2016": "131.40"
  },
  "AP Majumdar": {
    "2012": "114.47"
  },
  "PA Reddy": {
    "2012": "123.73",
    "2013": "89.22"
  },
  "K Upadhyay": {
    "2012": "137.50",
    "2013": "100.00"
  },
  "P Awana": {
    "2012": "80.00",
    "2013": "11.11"
  },
  "AD Russell": {
    "2012": "180.77",
    "2013": "78.57",
    "2014": "25.00",
    "2015": "191.76",
    "2016": "162.07"
  },
  "A Chandila": {
    "2012": "0.00",
    "2013": "66.67"
  },
  "Sunny Gupta": {
    "2012": "0.00"
  },
  "MC Juneja": {
    "2013": "96.90"
  },
  "GH Vihari": {
    "2013": "86.38",
    "2015": "111.43"
  },
  "MDKJ Perera": {
    "2013": "107.69"
  },
  "R Shukla": {
    "2013": "50.00",
    "2014": "85.71"
  },
  "B Laughlin": {
    "2013": "44.44"
  },
  "BMAJ Mendis": {
    "2013": "85.19"
  },
  "R Rampaul": {
    "2013": "102.70",
    "2014": "100.00"
  },
  "SMSM Senanayake": {
    "2013": "58.82"
  },
  "BJ Rohrer": {
    "2013": "136.88"
  },
  "KL Rahul": {
    "2013": "125.00",
    "2014": "101.22",
    "2015": "111.81",
    "2016": "145.96"
  },
  "Q de Kock": {
    "2013": "40.00",
    "2014": "117.69",
    "2015": "158.44",
    "2016": "134.85"
  },
  "R Dhawan": {
    "2013": "100.00",
    "2014": "109.33",
    "2015": "109.09",
    "2016": "233.33"
  },
  "LJ Wright": {
    "2013": "176.67"
  },
  "IC Pandey": {
    "2013": "0.00"
  },
  "CM Gautam": {
    "2013": "129.41",
    "2014": "106.14",
    "2015": "80.00"
  },
  "X Thalaivan Sargunam": {
    "2013": "58.82"
  },
  "DJG Sammy": {
    "2013": "131.82",
    "2014": "118.68",
    "2015": "72.22"
  },
  "KW Richardson": {
    "2013": "94.44",
    "2014": "50.00",
    "2016": "100.00"
  },
  "UA Birla": {
    "2013": "46.67"
  },
  "Parvez Rasool": {
    "2013": "55.56",
    "2015": "100.00",
    "2016": "111.11"
  },
  "PV Tambe": {
    "2013": "50.00",
    "2014": "55.56",
    "2015": "60.00",
    "2016": "36.84"
  },
  "NJ Maddinson": {
    "2014": "114.29",
    "2015": "57.14"
  },
  "JDS Neesham": {
    "2014": "91.30"
  },
  "MA Starc": {
    "2014": "101.19",
    "2015": "78.57"
  },
  "BR Dunk": {
    "2014": "114.29"
  },
  "RR Rossouw": {
    "2014": "95.12",
    "2015": "140.00"
  },
  "Shivam Sharma": {
    "2014": "166.67"
  },
  "VH Zol": {
    "2014": "111.54"
  },
  "BE Hendricks": {
    "2014": "0.00",
    "2015": "50.00"
  },
  "S Gopal": {
    "2014": "110.00",
    "2015": "100.00",
    "2016": "12.50"
  },
  "M de Lange": {
    "2014": "50.00"
  },
  "JO Holder": {
    "2014": "133.33",
    "2016": "115.79"
  },
  "Karanveer Singh": {
    "2014": "100.00",
    "2015": "68.75"
  },
  "SA Abbott": {
    "2015": "115.38"
  },
  "J Suchith": {
    "2015": "150.00"
  },
  "RG More": {
    "2015": "100.00"
  },
  "D Wiese": {
    "2015": "141.86",
    "2016": "125.00"
  },
  "SN Khan": {
    "2015": "156.34",
    "2016": "212.90"
  },
  "DJ Muthuswami": {
    "2015": "33.33"
  },
  "C Munro": {
    "2016": "100.00"
  },
  "P Sahu": {
    "2016": "146.15"
  },
  "KJ Abbott": {
    "2016": "162.50"
  },
  "M Ashwin": {
    "2016": "0.00"
  },
  "NS Naik": {
    "2016": "71.88"
  },
  "PSP Handscomb": {
    "2016": "50.00"
  },
  "J Yadav": {
    "2016": "60.00"
  },
  "UT Khawaja": {
    "2016": "127.00"
  },
  "F Behardien": {
    "2016": "107.69"
  },
  "BB Sran": {
    "2016": "100.00"
  },
  "S Kaushik": {
    "2016": "0.00"
  },
  "ER Dwivedi": {
    "2016": "171.43"
  }
}